^F:\WORLD OF PKZ 5.4.8\BUILD\SRC\TOOLS\MMAPS_GENERATOR\MMAPS_GENERATOR.DIR\RELEASE\INTERMEDIATEVALUES.OBJ|F:\WORLD OF PKZ 5.4.8\BUILD\SRC\TOOLS\MMAPS_GENERATOR\MMAPS_GENERATOR.DIR\RELEASE\MAPBUILDER.OBJ|F:\WORLD OF PKZ 5.4.8\BUILD\SRC\TOOLS\MMAPS_GENERATOR\MMAPS_GENERATOR.DIR\RELEASE\PATHGENERATOR.OBJ|F:\WORLD OF PKZ 5.4.8\BUILD\SRC\TOOLS\MMAPS_GENERATOR\MMAPS_GENERATOR.DIR\RELEASE\TERRAINBUILDER.OBJ|F:\WORLD OF PKZ 5.4.8\BUILD\SRC\TOOLS\MMAPS_GENERATOR\MMAPS_GENERATOR.DIR\RELEASE\VMAPEXTENSIONS.OBJ
C:\PROGRAM FILES (X86)\WINDOWS KITS\8.1\LIB\WINV6.3\UM\X64\KERNEL32.LIB
C:\PROGRAM FILES (X86)\WINDOWS KITS\8.1\LIB\WINV6.3\UM\X64\USER32.LIB
C:\PROGRAM FILES (X86)\WINDOWS KITS\8.1\LIB\WINV6.3\UM\X64\GDI32.LIB
C:\PROGRAM FILES (X86)\WINDOWS KITS\8.1\LIB\WINV6.3\UM\X64\WINSPOOL.LIB
C:\PROGRAM FILES (X86)\WINDOWS KITS\8.1\LIB\WINV6.3\UM\X64\SHELL32.LIB
C:\PROGRAM FILES (X86)\WINDOWS KITS\8.1\LIB\WINV6.3\UM\X64\OLE32.LIB
C:\PROGRAM FILES (X86)\WINDOWS KITS\8.1\LIB\WINV6.3\UM\X64\OLEAUT32.LIB
C:\PROGRAM FILES (X86)\WINDOWS KITS\8.1\LIB\WINV6.3\UM\X64\UUID.LIB
C:\PROGRAM FILES (X86)\WINDOWS KITS\8.1\LIB\WINV6.3\UM\X64\COMDLG32.LIB
C:\PROGRAM FILES (X86)\WINDOWS KITS\8.1\LIB\WINV6.3\UM\X64\ADVAPI32.LIB
F:\WORLD OF PKZ 5.4.8\BUILD\SRC\SERVER\COLLISION\RELEASE\COLLISION.LIB
F:\WORLD OF PKZ 5.4.8\BUILD\DEP\G3DLITE\RELEASE\G3DLIB.LIB
F:\WORLD OF PKZ 5.4.8\BUILD\DEP\RECASTNAVIGATION\RECAST\RELEASE\RECAST.LIB
F:\WORLD OF PKZ 5.4.8\BUILD\DEP\RECASTNAVIGATION\DETOUR\RELEASE\DETOUR.LIB
F:\WORLD OF PKZ 5.4.8\BUILD\DEP\BZIP2\RELEASE\BZIP2.LIB
F:\WORLD OF PKZ 5.4.8\BUILD\DEP\ZLIB\RELEASE\ZLIB.LIB
F:\WORLD OF PKZ 5.4.8\BUILD\SRC\SERVER\SHARED\RELEASE\SHARED.LIB
F:\WORLD OF PKZ 5.4.8\BUILD\DEP\ACELITE\ACE\RELEASE\ACE.LIB
F:\WORLD OF PKZ 5.4.8\BUILD\SRC\TOOLS\MMAPS_GENERATOR\MMAPS_GENERATOR.DIR\RELEASE\INTERMEDIATEVALUES.OBJ
F:\WORLD OF PKZ 5.4.8\BUILD\SRC\TOOLS\MMAPS_GENERATOR\MMAPS_GENERATOR.DIR\RELEASE\MAPBUILDER.OBJ
F:\WORLD OF PKZ 5.4.8\BUILD\SRC\TOOLS\MMAPS_GENERATOR\MMAPS_GENERATOR.DIR\RELEASE\PATHGENERATOR.OBJ
F:\WORLD OF PKZ 5.4.8\BUILD\SRC\TOOLS\MMAPS_GENERATOR\MMAPS_GENERATOR.DIR\RELEASE\TERRAINBUILDER.OBJ
F:\WORLD OF PKZ 5.4.8\BUILD\SRC\TOOLS\MMAPS_GENERATOR\MMAPS_GENERATOR.DIR\RELEASE\VMAPEXTENSIONS.OBJ
C:\WINDOWS\GLOBALIZATION\SORTING\SORTDEFAULT.NLS
F:\PROGRAMS\VC\LIB\AMD64\MSVCPRT.LIB
C:\PROGRAM FILES (X86)\WINDOWS KITS\8.1\LIB\WINV6.3\UM\X64\WS2_32.LIB
C:\PROGRAM FILES (X86)\WINDOWS KITS\8.1\LIB\WINV6.3\UM\X64\MSWSOCK.LIB
C:\PROGRAM FILES (X86)\WINDOWS KITS\8.1\LIB\WINV6.3\UM\X64\IPHLPAPI.LIB
C:\PROGRAM FILES (X86)\WINDOWS KITS\8.1\LIB\WINV6.3\UM\X64\NETAPI32.LIB
F:\PROGRAMS\VC\LIB\AMD64\MSVCRT.LIB
F:\PROGRAMS\VC\LIB\AMD64\OLDNAMES.LIB
C:\PROGRAM FILES (X86)\WINDOWS KITS\8.1\BIN\X86\RC.EXE
F:\PROGRAMS\VC\BIN\CVTRES.EXE
C:\WINDOWS\SYSTEM32\TZRES.DLL
C:\WINDOWS\SYSTEM32\RSAENH.DLL
